Notes for 431 - 4 Data Structures, Variable Types & Sampling NHANES
…
nh_temp <- NHANES |>
    filter(SurveyYr == "2011_12") |>
    filter(Age >= 21 & Age < 65) |>
    rename(Sex = Gender, Race = Race3, SBP = BPSysAve, DBP = BPDiaAve) |>
    select(ID, Sex, Age, Height, Weight, Race, Education, BMI, SBP, DBP, 
           Pulse, PhysActive, Smoke100, SleepTrouble, 
           MaritalStatus, HealthGen) |>
   distinct()

The resulting nh_temp data frame has 1700 rows and 16 columns.

nh_temp

# A tibble: 1,700 × 16
      ID Sex     Age Height Weight Race  Educa…¹   BMI   SBP   DBP Pulse PhysA…²
   <int> <fct> <int>  <dbl>  <dbl> <fct> <fct>   <dbl> <int> <int> <int> <fct>  
 1 62172 fema…    43   172    98.6 Black High S…  33.3   103    72    80 No     
 2 62176 fema…    34   172.   68.7 White Colleg…  23.3   107    69    92 Yes    
 3 62180 male     35   179.   89   White Colleg…  27.9   107    66    66 No     
 4 62199 male     57   186    96.9 White Colleg…  28     110    65    84 Yes    
 5 62205 male     28   171.   84.8 White Colleg…  28.9   122    87    70 Yes    
 6 62206 fema…    35   167.   81.5 White Some C…  29.1   106    50    58 No     
 7 62208 male     38   169.   63.2 Hisp… Some C…  22.2   105    59    52 Yes    
 8 62209 fema…    62   143.   53.5 Mexi… 8th Gr…  26     108    57    72 No     
 9 62220 fema…    31   167.  113.  Black Colleg…  40.4   120    71    62 Yes    
10 62222 male     32   179    80.1 White Colleg…  25     104    73    78 No     
# … with 1,690 more rows, 4 more variables: Smoke100 <fct>, SleepTrouble <fct>,
#   MaritalStatus <fct>, HealthGen <fct>, and abbreviated variable names
#   ¹​Education, ²​PhysActive
# ℹ Use `print(n = ...)` to see more rows, and `colnames()` to see all variable names
…
Setting a seed is an important part of being able to replicate the work later when sampling is involved.

Then we will use the slice_sample() function to actually draw the random sample, without replacement.

“Without replacement” means that once we’ve selected a particular subject, we won’t select them again.

set.seed(431002) 
# use set.seed to ensure that we all get the same random sample 

nh_adult750 <- slice_sample(nh_temp, n = 750, replace = F) 

nh_adult750

# A tibble: 750 × 16
      ID Sex     Age Height Weight Race  Educa…¹   BMI   SBP   DBP Pulse PhysA…²
   <int> <fct> <int>  <dbl>  <dbl> <fct> <fct>   <dbl> <int> <int> <int> <fct>  
 1 68648 fema…    30   181.   67.1 White Colleg…  20.4   103    59    78 No     
 2 67200 male     30   180.   86.6 White Colleg…  26.7   113    68    70 Yes    
 3 66404 fema…    35   160.   71.1 White Colleg…  27.8   116    80    68 Yes    
 4 70535 male     40   177.   82   White Colleg…  26.3   130    79    68 No     
 5 65308 fema…    54   151.   60.6 Mexi… 8th Gr…  26.6   130    64    48 No     
 6 67392 male     41   171.   90.7 Hisp… Colleg…  31.2   124    82    68 Yes    
 7 63218 male     35   163.   81   Mexi… 8th Gr…  30.3   128    96    82 No     
 8 65879 fema…    32   160.   66.4 Mexi… Colleg…  25.9   104    70    78 Yes    
 9 63617 male     29   189.   83.3 White Colleg…  23.2   105    72    76 Yes    
10 64720 male     29   174.   62.3 Black Colleg…  20.6   127    60    84 Yes    
# … with 740 more rows, 4 more variables: Smoke100 <fct>, SleepTrouble <fct>,
#   MaritalStatus <fct>, HealthGen <fct>, and abbreviated variable names
#   ¹​Education, ²​PhysActive
# ℹ Use `print(n = ...)` to see more rows, and `colnames()` to see all variable names
…
Now we see that 636 observations, or 84.8% of all cases have no missing data.

We can use miss_case_summary() to identify cases with missing data, as well.

miss_case_summary(nh_adult750)

# A tibble: 750 × 3
    case n_miss pct_miss
   <int>  <int>    <dbl>
 1   342      7     43.8
 2   606      6     37.5
 3   157      4     25  
 4   169      4     25  
 5   204      4     25  
 6   234      4     25  
 7   323      4     25  
 8   415      4     25  
 9   478      4     25  
10   483      4     25  
# … with 740 more rows
# ℹ Use `print(n = ...)` to see more rows
…
# A tibble: 1 × 3
  n_miss_in_var n_vars pct_vars
          <int>  <int>    <dbl>
1             0     16      100

OK. Now, let’s create a second sample, called nh_adult500cc, where now, we will select 500 adults with complete data on all of the variables of interest, and using a different random seed. The cc here stands for complete cases.

set.seed(431003) 
# use set.seed to ensure that we all get the same random sample 

nh_adult500cc <- slice_sample(nh_temp2, n = 500, replace = F) 

nh_adult500cc

# A tibble: 500 × 16
      ID Sex     Age Height Weight Race  Educa…¹   BMI   SBP   DBP Pulse PhysA…²
   <int> <fct> <int>  <dbl>  <dbl> <fct> <fct>   <dbl> <int> <int> <int> <fct>  
 1 64079 fema…    25   159.   86.2 Hisp… Some C…  34.2   120    67    84 Yes    
 2 64374 fema…    52   169    65.5 Asian Colleg…  22.9    92    58    60 Yes    
 3 71875 male     42   182.   94.1 Black Colleg…  28.5   102    63    76 Yes    
 4 66396 fema…    46   161.  107.  Asian 8th Gr…  41.2   111    61    70 No     
 5 64315 fema…    52   161.   64.5 White 9 - 11…  24.9   130    69    68 Yes    
 6 64015 male     32   168.   82.3 Mexi… Some C…  29     119    79    70 No     
 7 63590 male     21   181.   98.3 Black Some C…  29.9   121    67    58 Yes    
 8 70893 fema…    30   171.   65.7 White 9 - 11…  22.5   104    75    74 Yes    
 9 70828 male     26   178.  100.  White Some C…  31.5   119    77    66 No     
10 67930 male     59   172.   91.7 Mexi… Colleg…  31     127    85    66 No     
# … with 490 more rows, 4 more variables: Smoke100 <fct>, SleepTrouble <fct>,
#   MaritalStatus <fct>, HealthGen <fct>, and abbreviated variable names
#   ¹​Education, ²​PhysActive
# ℹ Use `print(n = ...)` to see more rows, and `colnames()` to see all variable names
…
