Notes for 431 - 10 National Youth Fitness Survey
…
Now, I’ll take a look at the nnyfs data, which I’ve made available in a comma-separated version (nnyfs.csv), if you prefer, as well as in an R data set (nnyfs.Rds) which loads a bit faster. After loading the file, let’s get a handle on its size and contents. In my R Project for these notes, the data are contained in a separate data subdirectory.

nnyfs <- readRDS("data/nnyfs.Rds")

## size of the tibble
dim(nnyfs)

[1] 1518   45

There are 1518 rows (subjects) and 45 columns (variables), by which I mean that there are 1518 kids in the nnyfs data frame, and we have 45 pieces of information on each subject. So, what do we have, exactly?

nnyfs # this is a tibble, has some nice features in a print-out like this

# A tibble: 1,518 × 45
    SEQN sex    age_ch…¹ race_…² educ_…³ langu…⁴ sampl…⁵ incom…⁶ age_a…⁷ educ_…⁸
   <dbl> <fct>     <dbl> <fct>     <dbl> <fct>     <dbl>   <dbl>   <dbl> <fct>  
 1 71917 Female       15 3_Blac…       9 English  28299.    0.21      46 2_9-11…
 2 71918 Female        8 3_Blac…       2 English  15127.    5         46 3_High…
 3 71919 Female       14 2_Whit…       8 English  29977.    5         42 5_Coll…
 4 71920 Female       15 2_Whit…       8 English  80652.    0.87      53 3_High…
 5 71921 Male          3 2_Whit…      NA English  55592.    4.34      31 3_High…
 6 71922 Male         12 1_Hisp…       6 English  27365.    5         42 4_Some…
 7 71923 Male         12 2_Whit…       5 English  86673.    5         39 2_9-11…
 8 71924 Female        8 4_Othe…       2 English  39549.    2.74      31 3_High…
 9 71925 Male          7 1_Hisp…       0 English  42333.    0.46      45 2_9-11…
10 71926 Male          8 3_Blac…       2 English  15307.    1.57      56 3_High…
# … with 1,508 more rows, 35 more variables: respondent <fct>, salt_used <fct>,
#   energy <dbl>, protein <dbl>, sugar <dbl>, fat <dbl>, diet_yesterday <fct>,
#   water <dbl>, plank_time <dbl>, height <dbl>, weight <dbl>, bmi <dbl>,
#   bmi_cat <fct>, arm_length <dbl>, waist <dbl>, arm_circ <dbl>,
#   calf_circ <dbl>, calf_skinfold <dbl>, triceps_skinfold <dbl>,
#   subscapular_skinfold <dbl>, active_days <dbl>, tv_hours <dbl>,
#   computer_hours <dbl>, physical_last_week <fct>, enjoy_recess <fct>, …
# ℹ Use `print(n = ...)` to see more rows, and `colnames()` to see all variable names
…
