Notes for 431 - 25 Analysis of Variance
…
library(tidyverse)

theme_set(theme_bw())

We will also use functions from the ggridges and mosaic packages.

25.2 National Youth Fitness Survey

Recall the National Youth Fitness Survey, which we explored a small piece of in some detail earlier in these notes. We’ll look at a different part of the same survey here - specifically the 280 children whose data are captured in the nyfs2 file.

nyfs2 <- read_csv("data/nyfs2.csv", show_col_types = FALSE)

nyfs2

# A tibble: 280 × 21
   subje…¹ sex   age.e…² race.…³ english incom…⁴ incom…⁵ inc.t…⁶ weigh…⁷ heigh…⁸
     <dbl> <chr>   <dbl> <chr>     <dbl> <chr>   <chr>     <dbl>   <dbl>   <dbl>
 1   73228 Male        4 5 Othe…       1 Low (b… 0 to 4…    0       17     104. 
 2   72393 Male        4 2 Non-…       1 Low (b… 0 to 4…    0       16.4   102. 
 3   73303 Male        3 2 Non-…       1 Low (b… 0 to 4…    0.16    16.4    98.7
 4   72786 Male        5 1 Non-…       1 Low (b… 0 to 4…    0.04    19.1   114. 
 5   73048 Male        3 2 Non-…       1 Low (b… 0 to 4…    0.17    14      93.8
 6   72556 Fema…       4 2 Non-…       1 Low (b… 0 to 4…    0.06    20.8   106. 
 7   72580 Fema…       5 2 Non-…       1 Low (b… 0 to 4…    0.17    18     107. 
 8   72532 Fema…       4 4 Othe…       0 Low (b… 0 to 4…    0.02    16.7   101. 
 9   73012 Male        4 1 Non-…       1 Low (b… 0 to 4…    0.21    19.8   106. 
10   72099 Male        6 1 Non-…       1 Low (b… 0 to 4…    0.2     31.4   121. 
# … with 270 more rows, 11 more variables: bmi <dbl>, bmi.group <dbl>,
#   bmi.cat <chr>, arm.length <dbl>, arm.circ <dbl>, waist.circ <dbl>,
#   calf.circ <dbl>, calf.skinfold <dbl>, triceps.skinfold <dbl>,
#   subscap.skinfold <dbl>, GMQ <dbl>, and abbreviated variable names
#   ¹​subject.id, ²​age.exam, ³​race.eth, ⁴​income.cat3, ⁵​income.detail,
#   ⁶​inc.to.pov, ⁷​weight.kg, ⁸​height.cm
# ℹ Use `print(n = ...)` to see more rows, and `colnames()` to see all variable names
…
