Notes for 431 - Appendix A — Getting Data Into R
…
Appendix A — Getting Data Into R

Using data from an R package

To use data from an R package, for instance, the bechdel data from the fivethirtyeight package, you can simply load the relevant package with library and then the data frame will be available

library(fivethirtyeight)
library(tidyverse)

bechdel

# A tibble: 1,794 × 15
    year imdb    title test  clean…¹ binary budget domgr…² intgr…³ code  budge…⁴
   <int> <chr>   <chr> <chr> <ord>   <chr>   <int>   <dbl>   <dbl> <chr>   <int>
 1  2013 tt1711… 21 &… nota… notalk  FAIL   1.3 e7  2.57e7  4.22e7 2013…  1.3 e7
 2  2012 tt1343… Dred… ok-d… ok      PASS   4.5 e7  1.34e7  4.09e7 2012…  4.57e7
 3  2013 tt2024… 12 Y… nota… notalk  FAIL   2   e7  5.31e7  1.59e8 2013…  2   e7
 4  2013 tt1272… 2 Gu… nota… notalk  FAIL   6.1 e7  7.56e7  1.32e8 2013…  6.1 e7
 5  2013 tt0453… 42    men   men     FAIL   4   e7  9.50e7  9.50e7 2013…  4   e7
 6  2013 tt1335… 47 R… men   men     FAIL   2.25e8  3.84e7  1.46e8 2013…  2.25e8
 7  2013 tt1606… A Go… nota… notalk  FAIL   9.2 e7  6.73e7  3.04e8 2013…  9.2 e7
 8  2013 tt2194… Abou… ok-d… ok      PASS   1.2 e7  1.53e7  8.73e7 2013…  1.2 e7
 9  2013 tt1814… Admi… ok    ok      PASS   1.3 e7  1.80e7  1.80e7 2013…  1.3 e7
10  2013 tt1815… Afte… nota… notalk  FAIL   1.3 e8  6.05e7  2.44e8 2013…  1.3 e8
# … with 1,784 more rows, 4 more variables: domgross_2013 <dbl>,
#   intgross_2013 <dbl>, period_code <int>, decade_code <int>, and abbreviated
#   variable names ¹​clean_test, ²​domgross, ³​intgross, ⁴​budget_2013
# ℹ Use `print(n = ...)` to see more rows, and `colnames()` to see all variable names
…
We have provided the nnyfs.Rds data file on the course data page.

Suppose you have downloaded this data file into a directory on your computer called data which is a sub-directory of the directory where you plan to do your work, perhaps called 431-nnyfs.

Open RStudio and create a new project into the 431-nnyfs directory on your computer. You should see a data subdirectory in the Files window in RStudio after the project is created.

Now, read in the nnyfs.Rds file to a new tibble in R called nnyfs_new with the following command:

nnyfs_new <- read_rds("data/nnyfs.Rds")

Here are the results…

nnyfs_new

# A tibble: 1,518 × 45
    SEQN sex    age_ch…¹ race_…² educ_…³ langu…⁴ sampl…⁵ incom…⁶ age_a…⁷ educ_…⁸
   <dbl> <fct>     <dbl> <fct>     <dbl> <fct>     <dbl>   <dbl>   <dbl> <fct>  
 1 71917 Female       15 3_Blac…       9 English  28299.    0.21      46 2_9-11…
 2 71918 Female        8 3_Blac…       2 English  15127.    5         46 3_High…
 3 71919 Female       14 2_Whit…       8 English  29977.    5         42 5_Coll…
 4 71920 Female       15 2_Whit…       8 English  80652.    0.87      53 3_High…
 5 71921 Male          3 2_Whit…      NA English  55592.    4.34      31 3_High…
 6 71922 Male         12 1_Hisp…       6 English  27365.    5         42 4_Some…
 7 71923 Male         12 2_Whit…       5 English  86673.    5         39 2_9-11…
 8 71924 Female        8 4_Othe…       2 English  39549.    2.74      31 3_High…
 9 71925 Male          7 1_Hisp…       0 English  42333.    0.46      45 2_9-11…
10 71926 Male          8 3_Blac…       2 English  15307.    1.57      56 3_High…
# … with 1,508 more rows, 35 more variables: respondent <fct>, salt_used <fct>,
#   energy <dbl>, protein <dbl>, sugar <dbl>, fat <dbl>, diet_yesterday <fct>,
#   water <dbl>, plank_time <dbl>, height <dbl>, weight <dbl>, bmi <dbl>,
#   bmi_cat <fct>, arm_length <dbl>, waist <dbl>, arm_circ <dbl>,
#   calf_circ <dbl>, calf_skinfold <dbl>, triceps_skinfold <dbl>,
#   subscapular_skinfold <dbl>, active_days <dbl>, tv_hours <dbl>,
#   computer_hours <dbl>, physical_last_week <fct>, enjoy_recess <fct>, …
# ℹ Use `print(n = ...)` to see more rows, and `colnames()` to see all variable names
…
nnyfs_new2 <- read_csv("data/nnyfs.csv")

Rows: 1518 Columns: 45
── Column specification ────────────────────────────────────────────────────────
Delimiter: ","
chr (18): sex, race_eth, language, educ_adult, respondent, salt_used, diet_y...
dbl (27): SEQN, age_child, educ_child, sampling_wt, income_pov, age_adult, e...

ℹ Use `spec()` to retrieve the full column specification for this data.
ℹ Specify the column types or set `show_col_types = FALSE` to quiet this message.

nnyfs_new2

# A tibble: 1,518 × 45
    SEQN sex    age_ch…¹ race_…² educ_…³ langu…⁴ sampl…⁵ incom…⁶ age_a…⁷ educ_…⁸
   <dbl> <chr>     <dbl> <chr>     <dbl> <chr>     <dbl>   <dbl>   <dbl> <chr>  
 1 71917 Female       15 3_Blac…       9 English  28299.    0.21      46 2_9-11…
 2 71918 Female        8 3_Blac…       2 English  15127.    5         46 3_High…
 3 71919 Female       14 2_Whit…       8 English  29977.    5         42 5_Coll…
 4 71920 Female       15 2_Whit…       8 English  80652.    0.87      53 3_High…
 5 71921 Male          3 2_Whit…      NA English  55592.    4.34      31 3_High…
 6 71922 Male         12 1_Hisp…       6 English  27365.    5         42 4_Some…
 7 71923 Male         12 2_Whit…       5 English  86673.    5         39 2_9-11…
 8 71924 Female        8 4_Othe…       2 English  39549.    2.74      31 3_High…
 9 71925 Male          7 1_Hisp…       0 English  42333.    0.46      45 2_9-11…
10 71926 Male          8 3_Blac…       2 English  15307.    1.57      56 3_High…
# … with 1,508 more rows, 35 more variables: respondent <chr>, salt_used <chr>,
#   energy <dbl>, protein <dbl>, sugar <dbl>, fat <dbl>, diet_yesterday <chr>,
#   water <dbl>, plank_time <dbl>, height <dbl>, weight <dbl>, bmi <dbl>,
#   bmi_cat <chr>, arm_length <dbl>, waist <dbl>, arm_circ <dbl>,
#   calf_circ <dbl>, calf_skinfold <dbl>, triceps_skinfold <dbl>,
#   subscapular_skinfold <dbl>, active_days <dbl>, tv_hours <dbl>,
#   computer_hours <dbl>, physical_last_week <chr>, enjoy_recess <chr>, …
# ℹ Use `print(n = ...)` to see more rows, and `colnames()` to see all variable names
…
nnyfs_new3 <- read_csv("data/nnyfs.csv") %>%
    mutate(across(where(is.character), as_factor))

Rows: 1518 Columns: 45
── Column specification ────────────────────────────────────────────────────────
Delimiter: ","
chr (18): sex, race_eth, language, educ_adult, respondent, salt_used, diet_y...
dbl (27): SEQN, age_child, educ_child, sampling_wt, income_pov, age_adult, e...

ℹ Use `spec()` to retrieve the full column specification for this data.
ℹ Specify the column types or set `show_col_types = FALSE` to quiet this message.

nnyfs_new3

# A tibble: 1,518 × 45
    SEQN sex    age_ch…¹ race_…² educ_…³ langu…⁴ sampl…⁵ incom…⁶ age_a…⁷ educ_…⁸
   <dbl> <fct>     <dbl> <fct>     <dbl> <fct>     <dbl>   <dbl>   <dbl> <fct>  
 1 71917 Female       15 3_Blac…       9 English  28299.    0.21      46 2_9-11…
 2 71918 Female        8 3_Blac…       2 English  15127.    5         46 3_High…
 3 71919 Female       14 2_Whit…       8 English  29977.    5         42 5_Coll…
 4 71920 Female       15 2_Whit…       8 English  80652.    0.87      53 3_High…
 5 71921 Male          3 2_Whit…      NA English  55592.    4.34      31 3_High…
 6 71922 Male         12 1_Hisp…       6 English  27365.    5         42 4_Some…
 7 71923 Male         12 2_Whit…       5 English  86673.    5         39 2_9-11…
 8 71924 Female        8 4_Othe…       2 English  39549.    2.74      31 3_High…
 9 71925 Male          7 1_Hisp…       0 English  42333.    0.46      45 2_9-11…
10 71926 Male          8 3_Blac…       2 English  15307.    1.57      56 3_High…
# … with 1,508 more rows, 35 more variables: respondent <fct>, salt_used <fct>,
#   energy <dbl>, protein <dbl>, sugar <dbl>, fat <dbl>, diet_yesterday <fct>,
#   water <dbl>, plank_time <dbl>, height <dbl>, weight <dbl>, bmi <dbl>,
#   bmi_cat <fct>, arm_length <dbl>, waist <dbl>, arm_circ <dbl>,
#   calf_circ <dbl>, calf_skinfold <dbl>, triceps_skinfold <dbl>,
#   subscapular_skinfold <dbl>, active_days <dbl>, tv_hours <dbl>,
#   computer_hours <dbl>, physical_last_week <fct>, enjoy_recess <fct>, …
# ℹ Use `print(n = ...)` to see more rows, and `colnames()` to see all variable names
…
