Chapter 32 Species Found on the Galapagos Islands | Data Science for Biological, Medical and Health Research: Notes for PQHS/CRSP/MPHP 431
…
species = our outcome, the number of species found on the island

area = the area of the island, in square kilometers

elevation = the highest elevation of the island, in meters

nearest = the distance from the nearest island, in kilometers

scruz = the distance from Santa Cruz Island, in kilometers. Santa Cruz is the home to the largest human population in the Islands, and to the town of Puerto Ayora.

adjacent = the area of the adjacent island, in square kilometers

gala

# A tibble: 30 x 8
      id island       species  area elevation nearest scruz adjacent
   <dbl> <chr>          <dbl> <dbl>     <dbl>   <dbl> <dbl>    <dbl>
 1     1 Baltra            58 25.1        346     0.6   0.6     1.84
 2     2 Bartolome         31  1.24       109     0.6  26.3   572.  
 3     3 Caldwell           3  0.21       114     2.8  58.7     0.78
 4     4 Champion          25  0.1         46     1.9  47.4     0.18
 5     5 Coamano            2  0.05        77     1.9   1.9   904.  
 6     6 Daphne.Major      18  0.34       119     8     8       1.84
 7     7 Daphne.Minor      24  0.08        93     6    12       0.34
 8     8 Darwin            10  2.33       168    34.1 290.      2.85
 9     9 Eden               8  0.03        71     0.4   0.4    18.0 
10    10 Enderby            2  0.18       112     2.6  50.2     0.1 
# ... with 20 more rows
…
